[
    {
      "picture": "http://placehold.it/32x32",
      "title": "Salas Harper",
      "genre": "male",
      "director": "KONGLE",
      "description": "Do aliquip occaecat nulla ipsum esse velit est proident commodo duis mollit aliqua ea. Officia veniam cillum anim commodo tempor consectetur. Esse nulla esse elit magna consequat magna sunt commodo. Tempor nisi eu commodo consequat ea. Laboris proident tempor sunt Lorem enim anim duis.\r\n"
    },
    {
      "picture": "http://placehold.it/32x32",
      "title": "Tonia Gill",
      "genre": "female",
      "director": "FUTURITY",
      "description": "Adipisicing pariatur nostrud do cillum nostrud esse. Ea aute dolor et nostrud quis. Sunt fugiat dolor elit occaecat culpa deserunt. Eiusmod commodo velit ea reprehenderit pariatur sit elit cupidatat incididunt tempor proident dolore nostrud ad.\r\n"
    },
    {
      "picture": "http://placehold.it/32x32",
      "title": "Nettie Sellers",
      "genre": "female",
      "director": "VURBO",
      "description": "Do sit tempor sit sit officia commodo nisi minim dolore est ea. Laborum aute nisi elit in laboris minim. Culpa aliquip qui proident quis. Sint eu do ea ipsum id eu cillum do duis irure. Cupidatat veniam cillum qui pariatur cupidatat. Reprehenderit ea consequat consectetur reprehenderit exercitation nisi reprehenderit ad reprehenderit occaecat mollit do adipisicing et.\r\n"
    },
    {
      "picture": "http://placehold.it/32x32",
      "title": "Bowman Reilly",
      "genre": "male",
      "director": "MATRIXITY",
      "description": "Anim consequat nulla Lorem adipisicing irure sint aliquip voluptate do proident. Culpa irure nostrud do est. Proident aliquip sint incididunt voluptate ex amet reprehenderit cillum anim excepteur id ullamco do. Lorem ad ipsum nostrud exercitation. Nostrud reprehenderit ullamco est anim ex proident. Deserunt incididunt ut aliquip elit. Reprehenderit consectetur anim aliqua voluptate laboris dolor Lorem dolore anim eiusmod quis nostrud incididunt.\r\n"
    },
    {
      "picture": "http://placehold.it/32x32",
      "title": "Karla Gould",
      "genre": "female",
      "director": "DANCITY",
      "description": "Occaecat sunt ipsum id laborum velit eu dolore et deserunt ut fugiat occaecat. Occaecat pariatur non minim voluptate aute et mollit nostrud ea cillum sint. Enim adipisicing est enim nisi do Lorem laborum occaecat. Est sunt est laboris labore. Ad deserunt officia laborum amet.\r\n"
    },
    {
      "picture": "http://placehold.it/32x32",
      "title": "Schultz George",
      "genre": "male",
      "director": "INTRAWEAR",
      "description": "Non eiusmod culpa non amet deserunt Lorem sit. Ullamco nisi tempor ea ea esse incididunt. Anim consequat ad laborum dolore aliquip dolor. Ipsum id aliqua reprehenderit ex. Ullamco do sunt exercitation nostrud irure culpa dolor elit.\r\n"
    },
    {
      "picture": "http://placehold.it/32x32",
      "title": "Mcgowan Barrera",
      "genre": "male",
      "director": "GRACKER",
      "description": "Velit Lorem adipisicing cillum id reprehenderit est sint enim sit. Irure commodo ut minim proident duis. Dolor anim laboris anim amet velit cupidatat duis. In eiusmod Lorem consequat mollit aute labore veniam commodo.\r\n"
    }
  ]